{
  "language": "Solidity",
  "settings": {
    "optimizer": {
      "enabled": false,
      "runs": 500
    },
    "outputSelection": {
      "dappsys.sol": {
        "*": [
          "metadata",
          "abi",
          "evm.bytecode",
          "evm.sourceMap"
        ]
      },
      "Token.sol": {
        "*": [
          "metadata",
          "abi",
          "evm.bytecode",
          "evm.sourceMap"
        ]
      },
      "WhitelistToken.sol": {
        "*": [
          "metadata",
          "abi",
          "evm.bytecode",
          "evm.sourceMap"
        ]
      }
    }
  },
  "sources": {
    "dappsys.sol": {
      "urls": [
        "contracts/dappsys.sol"
      ]
    },
    "Token.sol": {
      "urls": [
        "contracts/Token.sol"
      ]
    },
    "WhitelistToken.sol": {
      "urls": [
        "contracts/WhitelistToken.sol"
      ]
    }
  }
}
