@startuml
title Asset Gateway v1

' We ignore KYC
' We ignore gas fees

actor "Sender\nperson/wallet" as s
collections "Sender\nBank" as cb
collections "AGW\nBank" as agwb
actor "AGW admin" as adm
database "AGW specific\nToken contract" as agw
collections "Recipient\nBank" as rb
actor "Recipient\nperson/wallet" as r

== onboarding ==
'owner -> agw: deploy
r -> agw: register identity / wallet
r -> s: ask to send money to their wallet (over phone or email)
s -> agw: register identity / wallet

== deposit ==
s -> cb: deposit fiat
s -> cb: instruct transfer
cb -> agwb: transfer fiat

opt Existing exchanges do this
    s -> adm: notify deposit
    adm -> agwb: lookup transfer receipt
end

agwb -> adm: funds arrived
adm -> agw: mint tokens
adm -> agw: transfer tokens
agw --> s: transfer tokens
's -> agw: transfer tokens to recipient

== transfer ==
s -> agw: transfer AGW tokens
agw --> r: transfer AGW tokens

== withdraw ==
r -> agw: request withdrawal
agw --> adm: notify
adm -> agwb: instruct transfer
agwb -> rb: transfer fiat
alt success
    rb -> adm: ack transfer
    adm -> agw: burn tokens
else fail
    rb -> adm: transfer failed
    adm -> agw: return tokens
    agw --> r: tokens
end
@enduml