@startuml
title Asset Gateway "Money In" via bank transfer

left header
  • Compact version
end header

actor "Customer" as cust

box "Same Bank" #snow
    database "Customer\nBank account" as c_acc
    database "Asset Gateway\nBank account" as agw_acc
end box

actor "Asset Gateway\nOperator" as op
database "Asset Gateway" as sys

cust -> sys: Register\n  wallet address\n  bank account
cust -> c_acc: Instruct transfer\n  X USD\n  agw bank account
c_acc -> agw_acc: X USD
agw_acc -> op: X USD received\n  from customer bank account
op -> sys: Lookup\n  customer bank account
sys -> op: Customer wallet address
op -> sys: Mint X USDT tokens
alt Push tokens
    op -> sys: Transfer X USDT tokens
    sys --> cust: X USDT tokens
else Pull tokens
    op -> sys: Allow transfer X USDT tokens to customer
    cust -> sys: Transfer X USDT from asset gateway to themselves
    sys --> cust: X USDT tokens
end alt
@enduml
